{
    "prepare_queue": {
        "installed": [],
        "uninstalled": []
    },
    "config_munge": {
        "files": {}
    },
    "installed_plugins": {
        "cordova-plugin-device": {},
        "cordova-plugin-splashscreen": {},
        "cordova-plugin-statusbar": {},
        "cordova-plugin-tts": {},
        "com.phonegap.plugins.speech": {},
        "cordova-plugin-screen-orientation": {},
        "org.apache.cordova.speech.speechrecognition": {}
    },
    "dependent_plugins": {}
}